%YAML 1.1
%TAG !u! tag:unity3d.com,2011:
--- !u!1 &100000
GameObject:
  m_ObjectHideFlags: 0
  m_PrefabParentObject: {fileID: 0}
  m_PrefabInternal: {fileID: 100100000}
  serializedVersion: 4
  m_Component:
  - 4: {fileID: 400000}
  - 114: {fileID: 11400000}
  m_Layer: 0
  m_Name: Troll
  m_TagString: Untagged
  m_Icon: {fileID: 0}
  m_NavMeshLayer: 0
  m_StaticEditorFlags: 0
  m_IsActive: 0
--- !u!4 &400000
Transform:
  m_ObjectHideFlags: 1
  m_PrefabParentObject: {fileID: 0}
  m_PrefabInternal: {fileID: 100100000}
  m_GameObject: {fileID: 100000}
  m_LocalRotation: {x: 0, y: 0, z: 0, w: 1}
  m_LocalPosition: {x: 0, y: 0, z: 0}
  m_LocalScale: {x: 1, y: 1, z: 1}
  m_Children: []
  m_Father: {fileID: 0}
  m_RootOrder: 0
--- !u!114 &11400000
MonoBehaviour:
  m_ObjectHideFlags: 1
  m_PrefabParentObject: {fileID: 0}
  m_PrefabInternal: {fileID: 100100000}
  m_GameObject: {fileID: 100000}
  m_Enabled: 1
  m_EditorHideFlags: 0
  m_Script: {fileID: 11500000, guid: 84c7a4b4ee15890498f818262bca0312, type: 3}
  m_Name: 
  m_EditorClassIdentifier: 
  textures: []
  textureRefs: []
  spriteSheets: []
  fonts: []
  defaults:
    additive: 0
    scale: {x: 1, y: 1, z: 1}
    anchor: 4
    pad: 0
    colliderType: 0
  platforms:
  - name: 
    spriteCollection: {fileID: 0}
  managedSpriteCollection: 0
  loadable: 0
  atlasFormat: 0
  maxTextureSize: 2048
  forceTextureSize: 0
  forcedTextureWidth: 2048
  forcedTextureHeight: 2048
  textureCompression: 0
  atlasWidth: 16
  atlasHeight: 32
  forceSquareAtlas: 0
  atlasWastage: 52.9296875
  allowMultipleAtlases: 0
  removeDuplicates: 1
  textureParams:
  - name: arm1
    disableTrimming: 0
    additive: 0
    scale: {x: 1, y: 1, z: 1}
    texture: {fileID: 2800000, guid: 1b13a1a1d82716f4ba45abc484376840, type: 3}
    materialId: 0
    anchor: 4
    anchorX: 0
    anchorY: 0
    overrideMesh: {fileID: 0}
    doubleSidedSprite: 0
    customSpriteGeometry: 0
    geometryIslands: []
    dice: 0
    diceUnitX: 64
    diceUnitY: 64
    diceFilter: 0
    pad: 0
    extraPadding: 0
    source: 0
    fromSpriteSheet: 0
    hasSpriteSheetId: 0
    spriteSheetId: 0
    spriteSheetX: 0
    spriteSheetY: 0
    extractRegion: 0
    regionX: 0
    regionY: 0
    regionW: 0
    regionH: 0
    regionId: 0
    colliderType: 0
    colliderData: []
    boxColliderMin: {x: 0, y: 0}
    boxColliderMax: {x: 0, y: 0}
    polyColliderIslands: []
    polyColliderCap: 1
    colliderConvex: 0
    colliderSmoothSphereCollisions: 0
    colliderColor: 0
    attachPoints: []
  - name: head
    disableTrimming: 0
    additive: 0
    scale: {x: 1, y: 1, z: 1}
    texture: {fileID: 2800000, guid: 5124e5e1e0368ca43abb4c7828fe3fae, type: 3}
    materialId: 0
    anchor: 4
    anchorX: 0
    anchorY: 0
    overrideMesh: {fileID: 0}
    doubleSidedSprite: 0
    customSpriteGeometry: 0
    geometryIslands: []
    dice: 0
    diceUnitX: 64
    diceUnitY: 64
    diceFilter: 0
    pad: 0
    extraPadding: 0
    source: 0
    fromSpriteSheet: 0
    hasSpriteSheetId: 0
    spriteSheetId: 0
    spriteSheetX: 0
    spriteSheetY: 0
    extractRegion: 0
    regionX: 0
    regionY: 0
    regionW: 0
    regionH: 0
    regionId: 0
    colliderType: 0
    colliderData: []
    boxColliderMin: {x: 0, y: 0}
    boxColliderMax: {x: 0, y: 0}
    polyColliderIslands: []
    polyColliderCap: 1
    colliderConvex: 0
    colliderSmoothSphereCollisions: 0
    colliderColor: 0
    attachPoints: []
  - name: body
    disableTrimming: 0
    additive: 0
    scale: {x: 1, y: 1, z: 1}
    texture: {fileID: 2800000, guid: 6c4270a5e422de74ca24911e3fd0b615, type: 3}
    materialId: 0
    anchor: 4
    anchorX: 0
    anchorY: 0
    overrideMesh: {fileID: 0}
    doubleSidedSprite: 0
    customSpriteGeometry: 0
    geometryIslands: []
    dice: 0
    diceUnitX: 64
    diceUnitY: 64
    diceFilter: 0
    pad: 0
    extraPadding: 0
    source: 0
    fromSpriteSheet: 0
    hasSpriteSheetId: 0
    spriteSheetId: 0
    spriteSheetX: 0
    spriteSheetY: 0
    extractRegion: 0
    regionX: 0
    regionY: 0
    regionW: 0
    regionH: 0
    regionId: 0
    colliderType: 0
    colliderData: []
    boxColliderMin: {x: 0, y: 0}
    boxColliderMax: {x: 0, y: 0}
    polyColliderIslands: []
    polyColliderCap: 1
    colliderConvex: 0
    colliderSmoothSphereCollisions: 0
    colliderColor: 0
    attachPoints: []
  - name: hand2
    disableTrimming: 0
    additive: 0
    scale: {x: 1, y: 1, z: 1}
    texture: {fileID: 2800000, guid: e9b901d5b15eac04b9f6016a293db333, type: 3}
    materialId: 0
    anchor: 4
    anchorX: 0
    anchorY: 0
    overrideMesh: {fileID: 0}
    doubleSidedSprite: 0
    customSpriteGeometry: 0
    geometryIslands: []
    dice: 0
    diceUnitX: 64
    diceUnitY: 64
    diceFilter: 0
    pad: 0
    extraPadding: 0
    source: 0
    fromSpriteSheet: 0
    hasSpriteSheetId: 0
    spriteSheetId: 0
    spriteSheetX: 0
    spriteSheetY: 0
    extractRegion: 0
    regionX: 0
    regionY: 0
    regionW: 0
    regionH: 0
    regionId: 0
    colliderType: 0
    colliderData: []
    boxColliderMin: {x: 0, y: 0}
    boxColliderMax: {x: 0, y: 0}
    polyColliderIslands: []
    polyColliderCap: 1
    colliderConvex: 0
    colliderSmoothSphereCollisions: 0
    colliderColor: 0
    attachPoints: []
  - name: arm2
    disableTrimming: 0
    additive: 0
    scale: {x: 1, y: 1, z: 1}
    texture: {fileID: 2800000, guid: d5dc54866c99e1448b41a77e5d620d2d, type: 3}
    materialId: 0
    anchor: 4
    anchorX: 0
    anchorY: 0
    overrideMesh: {fileID: 0}
    doubleSidedSprite: 0
    customSpriteGeometry: 0
    geometryIslands: []
    dice: 0
    diceUnitX: 64
    diceUnitY: 64
    diceFilter: 0
    pad: 0
    extraPadding: 0
    source: 0
    fromSpriteSheet: 0
    hasSpriteSheetId: 0
    spriteSheetId: 0
    spriteSheetX: 0
    spriteSheetY: 0
    extractRegion: 0
    regionX: 0
    regionY: 0
    regionW: 0
    regionH: 0
    regionId: 0
    colliderType: 0
    colliderData: []
    boxColliderMin: {x: 0, y: 0}
    boxColliderMax: {x: 0, y: 0}
    polyColliderIslands: []
    polyColliderCap: 1
    colliderConvex: 0
    colliderSmoothSphereCollisions: 0
    colliderColor: 0
    attachPoints: []
  - name: hand1
    disableTrimming: 0
    additive: 0
    scale: {x: 1, y: 1, z: 1}
    texture: {fileID: 2800000, guid: b7e7c117345a40d4d945a48fff4d941f, type: 3}
    materialId: 0
    anchor: 4
    anchorX: 0
    anchorY: 0
    overrideMesh: {fileID: 0}
    doubleSidedSprite: 0
    customSpriteGeometry: 0
    geometryIslands: []
    dice: 0
    diceUnitX: 64
    diceUnitY: 64
    diceFilter: 0
    pad: 0
    extraPadding: 0
    source: 0
    fromSpriteSheet: 0
    hasSpriteSheetId: 0
    spriteSheetId: 0
    spriteSheetX: 0
    spriteSheetY: 0
    extractRegion: 0
    regionX: 0
    regionY: 0
    regionW: 0
    regionH: 0
    regionId: 0
    colliderType: 0
    colliderData: []
    boxColliderMin: {x: 0, y: 0}
    boxColliderMax: {x: 0, y: 0}
    polyColliderIslands: []
    polyColliderCap: 1
    colliderConvex: 0
    colliderSmoothSphereCollisions: 0
    colliderColor: 0
    attachPoints: []
  - name: leg1
    disableTrimming: 0
    additive: 0
    scale: {x: 1, y: 1, z: 1}
    texture: {fileID: 2800000, guid: 08270ef88e6fd1d458fefa171db428b9, type: 3}
    materialId: 0
    anchor: 4
    anchorX: 0
    anchorY: 0
    overrideMesh: {fileID: 0}
    doubleSidedSprite: 0
    customSpriteGeometry: 0
    geometryIslands: []
    dice: 0
    diceUnitX: 64
    diceUnitY: 64
    diceFilter: 0
    pad: 0
    extraPadding: 0
    source: 0
    fromSpriteSheet: 0
    hasSpriteSheetId: 0
    spriteSheetId: 0
    spriteSheetX: 0
    spriteSheetY: 0
    extractRegion: 0
    regionX: 0
    regionY: 0
    regionW: 0
    regionH: 0
    regionId: 0
    colliderType: 0
    colliderData: []
    boxColliderMin: {x: 0, y: 0}
    boxColliderMax: {x: 0, y: 0}
    polyColliderIslands: []
    polyColliderCap: 1
    colliderConvex: 0
    colliderSmoothSphereCollisions: 0
    colliderColor: 0
    attachPoints: []
  - name: leg2
    disableTrimming: 0
    additive: 0
    scale: {x: 1, y: 1, z: 1}
    texture: {fileID: 2800000, guid: e1edc1dbabd551c4d897b58ea65b1276, type: 3}
    materialId: 0
    anchor: 4
    anchorX: 0
    anchorY: 0
    overrideMesh: {fileID: 0}
    doubleSidedSprite: 0
    customSpriteGeometry: 0
    geometryIslands: []
    dice: 0
    diceUnitX: 64
    diceUnitY: 64
    diceFilter: 0
    pad: 0
    extraPadding: 0
    source: 0
    fromSpriteSheet: 0
    hasSpriteSheetId: 0
    spriteSheetId: 0
    spriteSheetX: 0
    spriteSheetY: 0
    extractRegion: 0
    regionX: 0
    regionY: 0
    regionW: 0
    regionH: 0
    regionId: 0
    colliderType: 0
    colliderData: []
    boxColliderMin: {x: 0, y: 0}
    boxColliderMax: {x: 0, y: 0}
    polyColliderIslands: []
    polyColliderCap: 1
    colliderConvex: 0
    colliderSmoothSphereCollisions: 0
    colliderColor: 0
    attachPoints: []
  spriteCollection: {fileID: 11400000, guid: 19589e72e9e68654eb823794865377d7, type: 2}
  premultipliedAlpha: 0
  altMaterials:
  - {fileID: 2100000, guid: 38a2f183d98261c4ab7b4fd9da29b113, type: 2}
  atlasMaterials:
  - {fileID: 2100000, guid: 38a2f183d98261c4ab7b4fd9da29b113, type: 2}
  atlasTextures:
  - {fileID: 2800000, guid: 991510bbfc8ab3442b349df444cb9d39, type: 3}
  atlasTextureFiles: []
  useTk2dCamera: 0
  targetHeight: 640
  targetOrthoSize: 10
  sizeDef:
    type: 1
    orthoSize: 10
    pixelsPerMeter: 100
    width: 960
    height: 640
  globalScale: 1
  globalTextureRescale: 1
  attachPointTestSprites: []
  pixelPerfectPointSampled: 0
  filterMode: 0
  wrapMode: 1
  userDefinedTextureSettings: 0
  mipmapEnabled: 0
  anisoLevel: 1
  physicsEngine: 1
  physicsDepth: .100000001
  disableTrimming: 0
  disableRotation: 0
  normalGenerationMode: 0
  padAmount: -1
  autoUpdate: 1
  editorDisplayScale: 1
  version: 4
  assetName: 
--- !u!1001 &100100000
Prefab:
  m_ObjectHideFlags: 1
  serializedVersion: 2
  m_Modification:
    m_TransformParent: {fileID: 0}
    m_Modifications: []
    m_RemovedComponents: []
  m_ParentPrefab: {fileID: 0}
  m_RootGameObject: {fileID: 100000}
  m_IsPrefabParent: 1
  m_IsExploded: 1
